第 1 章 数据结构与数据集 | R语言数据分析组队学习
…
数据表的每一列是一个子列表。将几个长度相同的子列表并排放在一起，就组成了一个长方形的矩阵形式。这种特殊的处理使得数据表包含了两种数据形式的优势。列与列之间可以使用不同的基础数据类型，也就是说一列的数据是数值型的数据，下一列数据可以是字符型的数据。长方形的形状保证了列与列之间的数值是一一对应的，每一行都是一个观察量。这很符合日常会遇到的数据的形式。

tibble是tidyverse系列包中的tibble包提供的一种数据形式。使用tibble比较明显的好处是，当你把tibble打印在控制台里的时候，它有一个更干净直观的打印方式。与 data frame 试图打印所有的行、一股脑把所有信息扔给你不同，tibble 默认只会打印前几行给你一个数据长什么样的感觉，还会告诉你每一列的数据是什么类型的：

tb <- tibble(a = 1:100, b = 101:200)
tb

## # A tibble: 100 x 2
##        a     b
##    <int> <int>
##  1     1   101
##  2     2   102
##  3     3   103
##  4     4   104
##  5     5   105
##  6     6   106
##  7     7   107
##  8     8   108
##  9     9   109
## 10    10   110
## # ... with 90 more rows
…
##  [1]  1  2  3  4  5  6  7  8  9 10 11 12

df$x

##  [1]  1  2  3  4  5  6  7  8  9 10 11 12

# 访问第一行第二个数值
df[1, 2]

## [1] "Jan"

# 访问tibble第2列
tb[, 2]

## # A tibble: 100 x 1
##        b
##    <int>
##  1   101
##  2   102
##  3   103
##  4   104
##  5   105
##  6   106
##  7   107
##  8   108
##  9   109
## 10   110
## # ... with 90 more rows
…
