Task01_Data_Structure.knit
…
tibbletidyversetibbletibbletibbledata frametibble 

tb <- tibble(a = 1:100, b = 101:200)
tb

## # A tibble: 100 x 2
##        a     b
##    <int> <int>
##  1     1   101
##  2     2   102
##  3     3   103
##  4     4   104
##  5     5   105
##  6     6   106
##  7     7   107
##  8     8   108
##  9     9   109
## 10    10   110
## # ... with 90 more rows
…
##  [1]  1  2  3  4  5  6  7  8  9 10 11 12

df$x

##  [1]  1  2  3  4  5  6  7  8  9 10 11 12

# 
df[1, 2]

## [1] "Jan"

# tibble2
tb[, 2]

## # A tibble: 100 x 1
##        b
##    <int>
##  1   101
##  2   102
##  3   103
##  4   104
##  5   105
##  6   106
##  7   107
##  8   108
##  9   109
## 10   110
## # ... with 90 more rows
…
